Hw8
…
final_fit <- last_fit(lm_wf2, split = bike_split)

→ A | warning: prediction from rank-deficient fit; consider predict(., rankdeficient="NA")

collect_metrics(final_fit)

# A tibble: 2 × 4
  .metric .estimator .estimate .config        
  <chr>   <chr>          <dbl> <chr>          
1 rmse    standard    3070.    pre0_mod0_post0
2 rsq     standard       0.909 pre0_mod0_post0

final_fit |> extract_fit_parsnip() |> tidy()

# A tibble: 24 × 5
   term                 estimate std.error statistic  p.value
   <chr>                   <dbl>     <dbl>     <dbl>    <dbl>
 1 (Intercept)           16797.      2117.     7.94  8.01e-14
 2 total_rainfall        -2309.       434.    -5.31  2.46e- 7
 3 total_snowfall          -91.5      205.    -0.447 6.56e- 1
 4 mean_temperature       -914.      3693.    -0.247 8.05e- 1
 5 mean_humidity         -3001.      1366.    -2.20  2.90e- 2
 6 mean_windspeed         -461.       212.    -2.17  3.09e- 2
 7 mean_visibility         205.       276.     0.744 4.58e- 1
 8 mean_dewpoint          8065.      4223.     1.91  5.73e- 2
 9 mean_solar_radiation   3212.       334.     9.62  9.42e-19
10 seasons_Spring        -7947.      3793.    -2.10  3.72e- 2
# ℹ 14 more rows
…
Based on this comparison, the model with both the lowest rmse and mae is the random forest model, making it the overall best model.

Next we will extract the final model fits and display them in differing ways depending on the model

#Extract final coefficients (MLR and LASSO Model)
final_mlr <- final_fit |> extract_fit_parsnip()
mlr_coefs <- tidy(final_mlr)
mlr_coefs

# A tibble: 24 × 5
   term                 estimate std.error statistic  p.value
   <chr>                   <dbl>     <dbl>     <dbl>    <dbl>
 1 (Intercept)           16797.      2117.     7.94  8.01e-14
 2 total_rainfall        -2309.       434.    -5.31  2.46e- 7
 3 total_snowfall          -91.5      205.    -0.447 6.56e- 1
 4 mean_temperature       -914.      3693.    -0.247 8.05e- 1
 5 mean_humidity         -3001.      1366.    -2.20  2.90e- 2
 6 mean_windspeed         -461.       212.    -2.17  3.09e- 2
 7 mean_visibility         205.       276.     0.744 4.58e- 1
 8 mean_dewpoint          8065.      4223.     1.91  5.73e- 2
 9 mean_solar_radiation   3212.       334.     9.62  9.42e-19
10 seasons_Spring        -7947.      3793.    -2.10  3.72e- 2
# ℹ 14 more rows
…
